uesocc/edu/sv/tpi2020/tpi_project/entities/Eventos_.class
uesocc/edu/sv/tpi2020/tpi_project/entities/Eventos.class
uesocc/edu/sv/tpi2020/tpi_project/server/service/EventosFacadeREST.class
uesocc/edu/sv/tpi2020/tpi_project/entities/Registro.class
uesocc/edu/sv/tpi2020/tpi_project/server/service/CalendarioFacadeREST.class
uesocc/edu/sv/tpi2020/tpi_project/entities/Usuario_.class
uesocc/edu/sv/tpi2020/tpi_project/entities/Registro_.class
uesocc/edu/sv/tpi2020/tpi_project/server/service/ApplicationConfig.class
uesocc/edu/sv/tpi2020/tpi_project/entities/Calendario.class
uesocc/edu/sv/tpi2020/tpi_project/server/service/RegistroFacadeREST.class
uesocc/edu/sv/tpi2020/tpi_project/entities/Usuario.class
uesocc/edu/sv/tpi2020/tpi_project/entities/Calendario_.class
uesocc/edu/sv/tpi2020/tpi_project/server/service/UsuarioFacadeREST.class
uesocc/edu/sv/tpi2020/tpi_project/server/service/AbstractFacade.class
